avg,gen,max,min,nevals
1.62235702084e+12,0,7.41201201069e+12,62501823391.5,20
3.66159809468e+11,1,1.46411156047e+12,62501823391.5,10
1.30990575981e+11,2,2.4012162278e+11,25602250867.5,12
1.0064253312e+11,3,5.22009313397e+11,25602250867.5,12
49617746874.6,4,2.4010225089e+11,25602103377.5,12
29292311608.3,5,62504203163.7,25602103371.2,10
32647217746.4,6,1.29603063351e+11,25602103367.5,13
26372437998.0,7,41008353389.5,25602103367.5,13
26372415869.7,8,41008353330.7,25602103367.5,13
33488079737.3,9,1.78508810871e+11,15008210892.1,9
36002270478.2,10,1.29604840664e+11,25602103362.5,9
