\relax 
\providecommand\hyper@newdestlabel[2]{}
\providecommand\HyperFirstAtBeginDocument{\AtBeginDocument}
\HyperFirstAtBeginDocument{\ifx\hyper@anchor\@undefined
\global\let\oldcontentsline\contentsline
\gdef\contentsline#1#2#3#4{\oldcontentsline{#1}{#2}{#3}}
\global\let\oldnewlabel\newlabel
\gdef\newlabel#1#2{\newlabelxx{#1}#2}
\gdef\newlabelxx#1#2#3#4#5#6{\oldnewlabel{#1}{{#2}{#3}}}
\AtEndDocument{\ifx\hyper@anchor\@undefined
\let\contentsline\oldcontentsline
\let\newlabel\oldnewlabel
\fi}
\fi}
\global\let\hyper@last\relax 
\gdef\HyperFirstAtBeginDocument#1{#1}
\providecommand\HyField@AuxAddToFields[1]{}
\providecommand\HyField@AuxAddToCoFields[2]{}
\@writefile{toc}{\contentsline {section}{\numberline {1}Background}{1}{section.1}}
\@writefile{lot}{\contentsline {table}{\numberline {1}{\ignorespaces Capital investment and operational options for reducing SSOs and CSOs}}{1}{table.1}}
\newlabel{table1}{{1}{1}{Capital investment and operational options for reducing SSOs and CSOs}{table.1}{}}
\@writefile{toc}{\contentsline {section}{\numberline {2}Formulation}{1}{section.2}}
\@writefile{toc}{\contentsline {subsection}{\numberline {2.1}Objective Statement}{1}{subsection.2.1}}
\@writefile{toc}{\contentsline {subsection}{\numberline {2.2}Definition of Decision Variables}{1}{subsection.2.2}}
\@writefile{lot}{\contentsline {table}{\numberline {2}{\ignorespaces Description of decision variables}}{2}{table.2}}
\newlabel{table:decision_vars}{{2}{2}{Description of decision variables}{table.2}{}}
\@writefile{toc}{\contentsline {subsection}{\numberline {2.3}Objective Function and Constraints}{2}{subsection.2.3}}
\@writefile{toc}{\contentsline {subsection}{\numberline {2.4}Solution}{3}{subsection.2.4}}
\@writefile{lot}{\contentsline {table}{\numberline {3}{\ignorespaces Description of the mapping of decision variables to bits}}{3}{table.3}}
\newlabel{table:bit_descr}{{3}{3}{Description of the mapping of decision variables to bits}{table.3}{}}
\@writefile{toc}{\contentsline {subsubsection}{\numberline {2.4.1}Results}{3}{subsubsection.2.4.1}}
\@writefile{lot}{\contentsline {table}{\numberline {4}{\ignorespaces Best policy found from genetic algorithm with starting population of 20 individuals and 10 generations}}{3}{table.4}}
\newlabel{table:best_policy}{{4}{3}{Best policy found from genetic algorithm with starting population of 20 individuals and 10 generations}{table.4}{}}
\@writefile{lof}{\contentsline {figure}{\numberline {1}{\ignorespaces Progression of objective function cost over algorithm run}}{4}{figure.1}}
\newlabel{fig:summary}{{1}{4}{Progression of objective function cost over algorithm run}{figure.1}{}}
\@writefile{toc}{\contentsline {section}{\numberline {3}Conclusion}{4}{section.3}}
